<?xml version="1.0"?>
<!DOCTYPE svg PUBLIC '-//W3C//DTD SVG 1.0//EN'
          'http://www.w3.org/TR/2001/REC-SVG-20010904/DTD/svg10.dtd'>
<svg xmlns:xlink="http://www.w3.org/1999/xlink" style="fill-opacity:1; color-rendering:auto; color-interpolation:auto; text-rendering:auto; stroke:black; stroke-linecap:square; stroke-miterlimit:10; shape-rendering:auto; stroke-opacity:1; fill:black; stroke-dasharray:none; font-weight:normal; stroke-width:1; font-family:'Dialog'; font-style:normal; stroke-linejoin:miter; font-size:12px; stroke-dashoffset:0; image-rendering:auto;" width="600" height="600" xmlns="http://www.w3.org/2000/svg"
><!--Generated by the Batik Graphics2D SVG Generator--><defs id="genericDefs"
  /><g
  ><g style="fill:rgb(214,171,186); stroke:rgb(214,171,186);"
    ><rect x="0" width="600" height="600" y="0" style="stroke:none;"
    /></g
    ><g style="fill:rgb(91,110,183); stroke:rgb(91,110,183);"
    ><circle r="50" style="stroke:none;" cx="100" cy="200"
      /><circle r="50" style="fill:rgb(49,57,226); stroke:none;" cx="100" cy="300"
      /><circle r="50" style="fill:rgb(114,77,250); stroke:none;" cx="100" cy="400"
      /><circle r="50" style="fill:rgb(36,44,119); stroke:none;" cx="200" cy="100"
      /><circle r="50" style="fill:rgb(77,158,57); stroke:none;" cx="200" cy="300"
      /><circle r="50" style="fill:rgb(128,103,72); stroke:none;" cx="200" cy="500"
      /><circle r="50" style="fill:rgb(148,206,122); stroke:none;" cx="300" cy="100"
      /><circle r="50" style="fill:rgb(167,251,171); stroke:none;" cx="300" cy="300"
      /><circle r="50" style="fill:rgb(98,207,88); stroke:none;" cx="300" cy="500"
      /><circle r="50" style="fill:rgb(105,75,71); stroke:none;" cx="400" cy="100"
      /><circle r="50" style="fill:rgb(4,72,197); stroke:none;" cx="500" cy="200"
      /><circle r="50" style="fill:rgb(76,69,19); stroke:none;" cx="500" cy="300"
      /><circle r="50" style="fill:rgb(112,63,49); stroke:none;" cx="500" cy="400"
      /><circle r="50" style="fill:rgb(252,185,172); stroke:none;" cx="500" cy="500"
    /></g
  ></g
></svg
>
